
=======================================================
IP Encontrada: 16:05 22/05/2021
IP: 2a03:2880:12ff:b::face:b00c

User-Agent: facebookexternalhit/1.1 (+http://www.facebook.com/externalhit_uatext.php)
=======================================================

=======================================================
IP Encontrada: 16:05 22/05/2021
IP: 2a03:2880:21ff:a::face:b00c

User-Agent: facebookexternalhit/1.1 (+http://www.facebook.com/externalhit_uatext.php)
=======================================================

=======================================================
IP Encontrada: 16:05 22/05/2021
IP: 2a03:2880:21ff:76::face:b00c

User-Agent: facebookexternalhit/1.1 (+http://www.facebook.com/externalhit_uatext.php)
=======================================================

=======================================================
IP Encontrada: 16:05 22/05/2021
IP: 190.57.11.112

User-Agent: Mozilla/5.0 (X11; Linux x86_64) AppleWebKit/537.36 (KHTML, like Gecko) Chrome/90.0.4430.93 Safari/537.36
=======================================================

=======================================================
IP Encontrada: 16:05 22/05/2021
IP: 2a03:2880:31ff:d::face:b00c

User-Agent: Mozilla/5.0 (Linux; Android 8.1.0; SM-J260M) AppleWebKit/537.36 (KHTML, like Gecko) Chrome/90.0.4430.210 Mobile Safari/537.36
=======================================================

=======================================================
IP Encontrada: 16:05 22/05/2021
IP: 2a03:2880:30ff:6::face:b00c

User-Agent: facebookexternalhit/1.1 (+http://www.facebook.com/externalhit_uatext.php)
=======================================================
